Analisa dan Prediksi COVID-19
…
Penamaan kolom sangatlah penting sehingga penamaan kolom diganti dengan yang lebih pendek dan sederhana.

covid <- covid %>% rename(STATE = `Province/State`, COUNTRY = `Country/Region`, LAT = Lat, LONG = Long, DATE = Date, CONFIRMED = Confirmed, DEATH = Deaths, RECOVERED = Recovered)

covid

## # A tibble: 6,880 x 8
##    STATE     COUNTRY          LAT  LONG DATE    CONFIRMED DEATH RECOVERED
##    <chr>     <chr>          <dbl> <dbl> <chr>       <dbl> <dbl>     <dbl>
##  1 Anhui     Mainland China  31.8  117. 1/22/20         1     0         0
##  2 Beijing   Mainland China  40.2  116. 1/22/20        14     0         0
##  3 Chongqing Mainland China  30.1  108. 1/22/20         6     0         0
##  4 Fujian    Mainland China  26.1  118. 1/22/20         1     0         0
##  5 Gansu     Mainland China  36.1  104. 1/22/20         0     0         0
##  6 Guangdong Mainland China  23.3  113. 1/22/20        26     0         0
##  7 Guangxi   Mainland China  23.8  109. 1/22/20         2     0         0
##  8 Guizhou   Mainland China  26.8  107. 1/22/20         1     0         0
##  9 Hainan    Mainland China  19.2  110. 1/22/20         4     0         0
## 10 Hebei     Mainland China  38.0  115. 1/22/20         1     0         0
## # ... with 6,870 more rows

Kolom tanggal dengan format character/string akan kita ganti dengan datetime

covid$DATE <- as.Date(covid$DATE, format = "%m/%d/%y")

covid

## # A tibble: 6,880 x 8
##    STATE     COUNTRY          LAT  LONG DATE       CONFIRMED DEATH RECOVERED
##    <chr>     <chr>          <dbl> <dbl> <date>         <dbl> <dbl>     <dbl>
##  1 Anhui     Mainland China  31.8  117. 2020-01-22         1     0         0
##  2 Beijing   Mainland China  40.2  116. 2020-01-22        14     0         0
##  3 Chongqing Mainland China  30.1  108. 2020-01-22         6     0         0
##  4 Fujian    Mainland China  26.1  118. 2020-01-22         1     0         0
##  5 Gansu     Mainland China  36.1  104. 2020-01-22         0     0         0
##  6 Guangdong Mainland China  23.3  113. 2020-01-22        26     0         0
##  7 Guangxi   Mainland China  23.8  109. 2020-01-22         2     0         0
##  8 Guizhou   Mainland China  26.8  107. 2020-01-22         1     0         0
##  9 Hainan    Mainland China  19.2  110. 2020-01-22         4     0         0
## 10 Hebei     Mainland China  38.0  115. 2020-01-22         1     0         0
## # ... with 6,870 more rows
…
Untuk menjaga data covid agar tidak berubah, maka kita akan meng-assign variabel baru yang akan kita rubah untuk analisa.

temp <- covid

Buat kolom baru bernama SEGMENT dengan mengaplikasikan fungsi yang sudah kita buat pada data frame.

temp["SEGMENT"] <- apply(temp, 1, location_df) #1, apply func by row -- 2, apply func by cols

temp

## # A tibble: 6,880 x 9
##    STATE   COUNTRY    LAT  LONG DATE       CONFIRMED DEATH RECOVERED SEGMENT    
##    <chr>   <chr>    <dbl> <dbl> <date>         <dbl> <dbl>     <dbl> <chr>      
##  1 Anhui   Mainlan~  31.8  117. 2020-01-22         1     0         0 Other Chin~
##  2 Beijing Mainlan~  40.2  116. 2020-01-22        14     0         0 Other Chin~
##  3 Chongq~ Mainlan~  30.1  108. 2020-01-22         6     0         0 Other Chin~
##  4 Fujian  Mainlan~  26.1  118. 2020-01-22         1     0         0 Other Chin~
##  5 Gansu   Mainlan~  36.1  104. 2020-01-22         0     0         0 Other Chin~
##  6 Guangd~ Mainlan~  23.3  113. 2020-01-22        26     0         0 Other Chin~
##  7 Guangxi Mainlan~  23.8  109. 2020-01-22         2     0         0 Other Chin~
##  8 Guizhou Mainlan~  26.8  107. 2020-01-22         1     0         0 Other Chin~
##  9 Hainan  Mainlan~  19.2  110. 2020-01-22         4     0         0 Other Chin~
## 10 Hebei   Mainlan~  38.0  115. 2020-01-22         1     0         0 Other Chin~
## # ... with 6,870 more rows

Visualisasi Positif COVID-19

Sebelum melakukan visualisasi, kita akan mempersiapkan tabel yang dikelompokkan berdasarkan tanggal / per hari sehingga kita dapat mengetahui trend harian.

temp_conf <- temp %>% group_by(DATE,SEGMENT) %>% summarize(CONFIRMED=sum(CONFIRMED))

temp_conf

## # A tibble: 129 x 3
## # Groups:   DATE [43]
##    DATE       SEGMENT                 CONFIRMED
##    <date>     <chr>                       <dbl>
##  1 2020-01-22 Hubei                         444
##  2 2020-01-22 Other Chinese Provinces       103
##  3 2020-01-22 Rest of the World               8
##  4 2020-01-23 Hubei                         444
##  5 2020-01-23 Other Chinese Provinces       195
##  6 2020-01-23 Rest of the World              14
##  7 2020-01-24 Hubei                         549
##  8 2020-01-24 Other Chinese Provinces       367
##  9 2020-01-24 Rest of the World              25
## 10 2020-01-25 Hubei                         761
## # ... with 119 more rows
…
Menyiapkan Data

Selanjutnya, kita mempersiapkan data yang dibutuhkan untuk proses modeling. Prophet hanya membutuhkan dua nilai di dalam satu tabel data frame, yaitu kolom yang berisikan waktu/tanggal/hari dan kolom yang berisikan suatu value yang akan kita prediksi. Dalam hal ini kita ingin memprediksi angka positif dalam sebulan ke depan. Maka kita mengisi kolom tersebut dengan angka positif dari data harian yang kita miliki. Dikarenakan Prophet hanya menerima kolom dengan nama ds dan y, maka kita harus mengganti nama kolom yang kita miliki. ds berisikan waktu, sedangkan y berisikan value / nilai.

temp_prophet <- temp %>% group_by(DATE) %>%  summarize(CONFIRMED=sum(CONFIRMED))
temp_prophet <- temp_prophet %>% rename(ds = DATE, y = CONFIRMED)
temp_prophet_death <- temp %>% group_by(DATE) %>%  summarize(DEATH=sum(DEATH))
temp_prophet_death <- temp_prophet_death %>% rename(ds = DATE, y = DEATH)

temp_prophet

## # A tibble: 43 x 2
##    ds             y
##    <date>     <dbl>
##  1 2020-01-22   555
##  2 2020-01-23   653
##  3 2020-01-24   941
##  4 2020-01-25  1434
##  5 2020-01-26  2118
##  6 2020-01-27  2927
##  7 2020-01-28  5578
##  8 2020-01-29  6166
##  9 2020-01-30  8234
## 10 2020-01-31  9927
## # ... with 33 more rows

temp_prophet_death

## # A tibble: 43 x 2
##    ds             y
##    <date>     <dbl>
##  1 2020-01-22    17
##  2 2020-01-23    18
##  3 2020-01-24    26
##  4 2020-01-25    42
##  5 2020-01-26    56
##  6 2020-01-27    82
##  7 2020-01-28   131
##  8 2020-01-29   133
##  9 2020-01-30   171
## 10 2020-01-31   213
## # ... with 33 more rows
…
